Benchmarking PLS1 Implementations • bigPLSR
…
Interpreting the output

The table summarises the timing and memory footprint of each solver.
In practice you can adjust the number of components, the chunk size or
the data generation process to mimic your own workload. When working
with file-backed matrices the streaming solver is often the only viable
option, whereas the dense solver remains the fastest choice for datasets
that comfortably fit in memory.

bench_res_simpls
#> # A tibble: 54 × 8
#>    expression       n     p      min   median `itr/sec` mem_alloc `gc/sec`
#>    <bch:expr>   <dbl> <dbl> <bch:tm> <bch:tm>     <dbl> <bch:byt>    <dbl>
#>  1 dense          500   100   5.11ms   5.28ms     189.    199.4KB     0   
#>  2 streaming      500   100  26.68ms  26.74ms      37.3      49KB     0   
#>  3 dense_a        500   100   4.67ms   4.71ms     212.     42.1KB     0   
#>  4 streaming_a    500   100  26.25ms  26.38ms      37.7    47.7KB     0   
#>  5 dense_ya       500   100   4.67ms   4.71ms     212.     43.5KB     0   
#>  6 streaming_ya   500   100  26.22ms  26.32ms      37.9    43.8KB     0   
#>  7 dense         1000   100   8.57ms   8.73ms     114.     18.4KB     0   
#>  8 streaming     1000   100  51.21ms  51.31ms      19.2    18.4KB     2.13
#>  9 dense_a       1000   100   8.23ms   8.29ms     120.     11.2KB     0   
#> 10 streaming_a   1000   100  50.79ms  50.89ms      19.6    11.6KB     0   
#> # ℹ 44 more rows

bench_res_nipals
#> # A tibble: 54 × 8
#>    expression       n     p      min   median `itr/sec` mem_alloc `gc/sec`
#>    <bch:expr>   <dbl> <dbl> <bch:tm> <bch:tm>     <dbl> <bch:byt>    <dbl>
#>  1 dense          500   100   8.53ms   8.54ms     117.     34.7KB     0   
#>  2 streaming      500   100   8.53ms   8.53ms     117.     34.9KB     0   
#>  3 dense_a        500   100   6.56ms   6.58ms     152.     33.5KB     0   
#>  4 streaming_a    500   100   3.54ms   3.54ms     281.     53.4KB     0   
#>  5 dense_ya       500   100   8.55ms   8.56ms     117.     62.7KB     0   
#>  6 streaming_ya   500   100   8.55ms   8.56ms     117.     35.2KB     0   
#>  7 dense         1000   100  16.99ms     17ms      58.8    50.8KB     0   
#>  8 streaming     1000   100  16.98ms     17ms      58.8    50.8KB     6.53
#>  9 dense_a       1000   100  13.04ms  13.07ms      72.9    49.5KB     0   
#> 10 streaming_a   1000   100   7.08ms   7.13ms     138.       89KB     0   
#> # ℹ 44 more rows
…
