Benchmarking PLS2 Implementations • bigPLSR
…
Interpreting the output

The benchmark summary reports the average and worst-case execution
time as well as memory allocations. Users working with file-backed
matrices or very large datasets should prefer the streaming
implementation, while the dense solver remains a strong choice when the
data comfortably fits in RAM.

bench_res_q_5
#> # A tibble: 36 × 8
#>    expression           n     p      min   median `itr/sec` mem_alloc `gc/sec`
#>    <bch:expr>       <dbl> <dbl> <bch:tm> <bch:tm>     <dbl> <bch:byt>    <dbl>
#>  1 dense_simpls       500   100 950.22µs  958.7µs   1026.      50.5KB        0
#>  2 dense_nipals       500   100     16ms  16.07ms     62.1     36.6KB        0
#>  3 streaming_simpls   500   100   4.08ms   4.11ms    243.      31.9KB        0
#>  4 streaming_nipals   500   100 424.75ms 425.73ms      2.34    44.7KB        0
#>  5 dense_simpls      1000   100    1.9ms   2.03ms    497.      52.9KB        0
#>  6 dense_nipals      1000   100  40.01ms  40.19ms     24.8     52.9KB        0
#>  7 streaming_simpls  1000   100   8.12ms   8.13ms    123.      13.8KB        0
#>  8 streaming_nipals  1000   100 965.84ms  969.9ms      1.01    60.8KB        0
#>  9 dense_simpls      5000   100   9.73ms   9.87ms    101.     209.1KB        0
#> 10 dense_nipals      5000   100 197.99ms 198.43ms      5.00   209.1KB        0
#> # ℹ 26 more rows

bench_res_q_50
#> # A tibble: 36 × 8
#>    expression           n     p      min   median `itr/sec` mem_alloc `gc/sec`
#>    <bch:expr>       <dbl> <dbl> <bch:tm> <bch:tm>     <dbl> <bch:byt>    <dbl>
#>  1 dense_simpls       500   100   6.96ms   7.33ms   138.       71.6KB        0
#>  2 dense_nipals       500   100  107.6ms 107.69ms     9.28     71.6KB        0
#>  3 streaming_simpls   500   100   14.6ms  15.13ms    66.1        52KB        0
#>  4 streaming_nipals   500   100     2.8s    2.81s     0.356   114.6KB        0
#>  5 dense_simpls      1000   100  10.92ms  11.05ms    89.8      91.1KB        0
#>  6 dense_nipals      1000   100 270.61ms 277.01ms     3.52     91.1KB        0
#>  7 streaming_simpls  1000   100  25.37ms  25.38ms    39.3        52KB        0
#>  8 streaming_nipals  1000   100    7.89s     7.9s     0.126   134.2KB        0
#>  9 dense_simpls      5000   100  42.03ms  42.14ms    23.7     247.3KB        0
#> 10 dense_nipals      5000   100    1.64s    1.65s     0.607   247.3KB        0
#> # ℹ 26 more rows
…
